{"items":
[
	{"value":"Here you can view your Mech collection, upgrade them, and check their parts."},
	{"value":"Next"},
	{"value":"This ends the tutorial. Challenge your friends and rise to the top of the leaderboards! Be the best Mech Builder in the world!"},
	{"value":"End"}
]
}